[{"__symbolic":"module","version":3,"metadata":{"users":{"page":"2","per_page":3,"total":12,"total_pages":4,"data":[{"id":4,"first_name":"eve","last_name":"holt","avatar":"https://s3.amazonaws.com/uifaces/faces/twitter/marcoramires/128.jpg","$quoted$":["id","first_name","last_name","avatar"]},{"id":5,"first_name":"gob","last_name":"bluth","avatar":"https://s3.amazonaws.com/uifaces/faces/twitter/stephenmoon/128.jpg","$quoted$":["id","first_name","last_name","avatar"]},{"id":6,"first_name":"tracey","last_name":"bluth","avatar":"https://s3.amazonaws.com/uifaces/faces/twitter/bigmancho/128.jpg","$quoted$":["id","first_name","last_name","avatar"]}],"$quoted$":["page","per_page","total","total_pages","data"]}}},{"__symbolic":"module","version":1,"metadata":{"users":{"page":"2","per_page":3,"total":12,"total_pages":4,"data":[{"id":4,"first_name":"eve","last_name":"holt","avatar":"https://s3.amazonaws.com/uifaces/faces/twitter/marcoramires/128.jpg"},{"id":5,"first_name":"gob","last_name":"bluth","avatar":"https://s3.amazonaws.com/uifaces/faces/twitter/stephenmoon/128.jpg"},{"id":6,"first_name":"tracey","last_name":"bluth","avatar":"https://s3.amazonaws.com/uifaces/faces/twitter/bigmancho/128.jpg"}]}}}]